Working with PSM data • PSM
…
## CharacterList of length 1
## [["controllerType=0 controllerNumber=1 scan=1774"]] ECA2104 ECA2867 ECA3427 ECA4142

The is the type of complete identification table that could be used to annotate an raw mass spectrometry Spectra object.

Filtering data

Often, the PSM data is filtered to only retain reliable matches. The MSnID package can be used to set thresholds to attain user-defined PSM, peptide or protein-level FDRs. Here, we will simply filter out wrong identification manually.

Here, the filter() from the dplyr package comes very handy. We will thus start by convering the DataFrame to a tibble.

id_tbl <- tidyr::as_tibble(id)
id_tbl

## # A tibble: 5,802 x 35
##    sequence     spectrumID     chargeState  rank passThreshold experimentalMass…
##    <chr>        <chr>                <int> <int> <lgl>                     <dbl>
##  1 RQCRTDFLNYLR controllerTyp…           3     1 TRUE                       548.
##  2 ESVALADQVTC… controllerTyp…           2     1 TRUE                      1288.
##  3 KELLCLAMQIIR controllerTyp…           2     1 TRUE                       744.
##  4 QRMARTSDKQQ… controllerTyp…           3     1 TRUE                       913.
##  5 KDEGSTEPLKV… controllerTyp…           3     1 TRUE                       927.
##  6 DGGPAIYGHER… controllerTyp…           3     1 TRUE                       969.
##  7 QRMARTSDKQQ… controllerTyp…           2     1 TRUE                      1369.
##  8 CIDRARHVEVQ… controllerTyp…           3     1 TRUE                      1285.
##  9 CIDRARHVEVQ… controllerTyp…           3     1 TRUE                      1285.
## 10 VGRCRPIINYL… controllerTyp…           2     1 TRUE                      1102.
## # … with 5,792 more rows, and 29 more variables: calculatedMassToCharge <dbl>,
## #   peptideRef <chr>, modNum <int>, isDecoy <lgl>, post <chr>, pre <chr>,
## #   start <int>, end <int>, DatabaseAccess <chr>, DBseqLength <int>,
## #   DatabaseSeq <chr>, DatabaseDescription <chr>, scan.number.s. <dbl>,
## #   acquisitionNum <dbl>, spectrumFile <chr>, idFile <chr>,
## #   MS.GF.RawScore <dbl>, MS.GF.DeNovoScore <dbl>, MS.GF.SpecEValue <dbl>,
## #   MS.GF.EValue <dbl>, MS.GF.QValue <dbl>, MS.GF.PepQValue <dbl>,
## #   modPeptideRef <chr>, modName <chr>, modMass <dbl>, modLocation <int>,
## #   subOriginalResidue <chr>, subReplacementResidue <chr>, subLocation <int>

Remove decoy hits

library("dplyr")
id_tbl <- id_tbl %>%
    filter(!isDecoy)
id_tbl

## # A tibble: 2,906 x 35
##    sequence     spectrumID     chargeState  rank passThreshold experimentalMass…
##    <chr>        <chr>                <int> <int> <lgl>                     <dbl>
##  1 RQCRTDFLNYLR controllerTyp…           3     1 TRUE                       548.
##  2 ESVALADQVTC… controllerTyp…           2     1 TRUE                      1288.
##  3 QRMARTSDKQQ… controllerTyp…           3     1 TRUE                       913.
##  4 DGGPAIYGHER… controllerTyp…           3     1 TRUE                       969.
##  5 QRMARTSDKQQ… controllerTyp…           2     1 TRUE                      1369.
##  6 CIDRARHVEVQ… controllerTyp…           3     1 TRUE                      1285.
##  7 CIDRARHVEVQ… controllerTyp…           3     1 TRUE                      1285.
##  8 VGRCRPIINYL… controllerTyp…           2     1 TRUE                      1102.
##  9 QRLDEHCVGVG… controllerTyp…           3     1 TRUE                       713.
## 10 VDYQGKKVVII… controllerTyp…           4     1 TRUE                       870.
## # … with 2,896 more rows, and 29 more variables: calculatedMassToCharge <dbl>,
## #   peptideRef <chr>, modNum <int>, isDecoy <lgl>, post <chr>, pre <chr>,
## #   start <int>, end <int>, DatabaseAccess <chr>, DBseqLength <int>,
## #   DatabaseSeq <chr>, DatabaseDescription <chr>, scan.number.s. <dbl>,
## #   acquisitionNum <dbl>, spectrumFile <chr>, idFile <chr>,
## #   MS.GF.RawScore <dbl>, MS.GF.DeNovoScore <dbl>, MS.GF.SpecEValue <dbl>,
## #   MS.GF.EValue <dbl>, MS.GF.QValue <dbl>, MS.GF.PepQValue <dbl>,
## #   modPeptideRef <chr>, modName <chr>, modMass <dbl>, modLocation <int>,
## #   subOriginalResidue <chr>, subReplacementResidue <chr>, subLocation <int>

Keep first rank matches

id_tbl <- id_tbl %>%
    filter(rank == 1)
id_tbl

## # A tibble: 2,751 x 35
##    sequence     spectrumID     chargeState  rank passThreshold experimentalMass…
##    <chr>        <chr>                <int> <int> <lgl>                     <dbl>
##  1 RQCRTDFLNYLR controllerTyp…           3     1 TRUE                       548.
##  2 ESVALADQVTC… controllerTyp…           2     1 TRUE                      1288.
##  3 QRMARTSDKQQ… controllerTyp…           3     1 TRUE                       913.
##  4 DGGPAIYGHER… controllerTyp…           3     1 TRUE                       969.
##  5 QRMARTSDKQQ… controllerTyp…           2     1 TRUE                      1369.
##  6 CIDRARHVEVQ… controllerTyp…           3     1 TRUE                      1285.
##  7 CIDRARHVEVQ… controllerTyp…           3     1 TRUE                      1285.
##  8 VGRCRPIINYL… controllerTyp…           2     1 TRUE                      1102.
##  9 QRLDEHCVGVG… controllerTyp…           3     1 TRUE                       713.
## 10 VDYQGKKVVII… controllerTyp…           4     1 TRUE                       870.
## # … with 2,741 more rows, and 29 more variables: calculatedMassToCharge <dbl>,
## #   peptideRef <chr>, modNum <int>, isDecoy <lgl>, post <chr>, pre <chr>,
## #   start <int>, end <int>, DatabaseAccess <chr>, DBseqLength <int>,
## #   DatabaseSeq <chr>, DatabaseDescription <chr>, scan.number.s. <dbl>,
## #   acquisitionNum <dbl>, spectrumFile <chr>, idFile <chr>,
## #   MS.GF.RawScore <dbl>, MS.GF.DeNovoScore <dbl>, MS.GF.SpecEValue <dbl>,
## #   MS.GF.EValue <dbl>, MS.GF.QValue <dbl>, MS.GF.PepQValue <dbl>,
## #   modPeptideRef <chr>, modName <chr>, modMass <dbl>, modLocation <int>,
## #   subOriginalResidue <chr>, subReplacementResidue <chr>, subLocation <int>
…
The scans below are those that match different proteins. For example scan 4884 (the two first rows) matches proteins XXX_ECA3406 and ECA3415. Scan 4099 (rows 6 to 8) match XXX_ECA4416_1, XXX_ECA4416_2 and XXX_ECA4416_3.

mltm <-
    id_tbl %>%
    group_by(spectrumID) %>%
    mutate(nProts = length(unique(DatabaseAccess))) %>%
    filter(nProts > 1) %>%
    select(DatabaseAccess, nProts)

## Adding missing grouping variables: `spectrumID`

mltm

## # A tibble: 85 x 3
## # Groups:   spectrumID [39]
##    spectrumID                                    DatabaseAccess nProts
##    <chr>                                         <chr>           <int>
##  1 controllerType=0 controllerNumber=1 scan=1073 ECA2869             2
##  2 controllerType=0 controllerNumber=1 scan=1073 ECA4278             2
##  3 controllerType=0 controllerNumber=1 scan=6578 ECA3480             2
##  4 controllerType=0 controllerNumber=1 scan=6578 ECA3481             2
##  5 controllerType=0 controllerNumber=1 scan=5617 ECA4283             2
##  6 controllerType=0 controllerNumber=1 scan=5617 ECA4292             2
##  7 controllerType=0 controllerNumber=1 scan=3926 ECA0216             2
##  8 controllerType=0 controllerNumber=1 scan=3926 ECA4035             2
##  9 controllerType=0 controllerNumber=1 scan=4784 ECA0216             2
## 10 controllerType=0 controllerNumber=1 scan=4784 ECA4035             2
## # … with 75 more rows

We can now remove the scane with

id_tbl <-
    id_tbl %>%
    filter(!spectrumID %in% mltm$spectrumID)
id_tbl

## # A tibble: 2,666 x 35
##    sequence     spectrumID     chargeState  rank passThreshold experimentalMass…
##    <chr>        <chr>                <int> <int> <lgl>                     <dbl>
##  1 RQCRTDFLNYLR controllerTyp…           3     1 TRUE                       548.
##  2 ESVALADQVTC… controllerTyp…           2     1 TRUE                      1288.
##  3 QRMARTSDKQQ… controllerTyp…           3     1 TRUE                       913.
##  4 DGGPAIYGHER… controllerTyp…           3     1 TRUE                       969.
##  5 QRMARTSDKQQ… controllerTyp…           2     1 TRUE                      1369.
##  6 CIDRARHVEVQ… controllerTyp…           3     1 TRUE                      1285.
##  7 CIDRARHVEVQ… controllerTyp…           3     1 TRUE                      1285.
##  8 VGRCRPIINYL… controllerTyp…           2     1 TRUE                      1102.
##  9 QRLDEHCVGVG… controllerTyp…           3     1 TRUE                       713.
## 10 VDYQGKKVVII… controllerTyp…           4     1 TRUE                       870.
## # … with 2,656 more rows, and 29 more variables: calculatedMassToCharge <dbl>,
## #   peptideRef <chr>, modNum <int>, isDecoy <lgl>, post <chr>, pre <chr>,
## #   start <int>, end <int>, DatabaseAccess <chr>, DBseqLength <int>,
## #   DatabaseSeq <chr>, DatabaseDescription <chr>, scan.number.s. <dbl>,
## #   acquisitionNum <dbl>, spectrumFile <chr>, idFile <chr>,
## #   MS.GF.RawScore <dbl>, MS.GF.DeNovoScore <dbl>, MS.GF.SpecEValue <dbl>,
## #   MS.GF.EValue <dbl>, MS.GF.QValue <dbl>, MS.GF.PepQValue <dbl>,
## #   modPeptideRef <chr>, modName <chr>, modMass <dbl>, modLocation <int>,
## #   subOriginalResidue <chr>, subReplacementResidue <chr>, subLocation <int>
…
